<?xml version="1.0" encoding="UTF-8" standalone="no"?>


<svg xmlns="http://www.w3.org/2000/svg" width="170" height="60" viewBox="0 0 170 60">
 
  <defs>
    <style>
      .letters {
        fill: none;
        stroke: #000000;
        stroke-width: 6;
        stroke-linecap: round;
        stroke-linejoin: round;
        stroke-opacity: 1;
        stroke-miterlimit: 4;
        stroke-dasharray: none;
      }
    </style>
  </defs>
  
  <g
     id="layer1">
    <path class="letters" id="r1"
       d="M 6.1935086,48.237947 C 7.098381,40.433282 8.7427022,32.136423 6.794865,15.296986 11.700376,7.3190668 27.379026,10.525404 26.238723,22.667151 25.361292,29.236375 19.27927,34.693005 8.1433721,31.418261 13.702902,42.037533 28.243422,53.863242 35.718528,48.237947"
       
        />
    <path class="letters" id="e1"
       d="M 34.590895,30.46452 C 51.308638,38.063894 54.032888,20.629287 42.943068,19.773741 22.02127,21.610417 32.532593,53.921844 55.90564,38.215339"
        />
    <path class="letters" id="v"
       d="m 55.905638,18.303757 c 5.280393,5.338876 8.299706,13.853084 10.022607,24.187901 1.534814,-8.244289 1.999906,-16.596173 10.022607,-24.187901"
        />
    <path class="letters" id="e2"
       d="M 81.994066,30.463129 C 98.95991,37.467057 102.8999,17.114683 90.34624,19.77235 71.404325,23.120296 75.149926,52.64199 96.00573,40.186451"
        />
    <path class="letters" id="r2"       
       d="m 100.94056,34.373336 c 1.56496,-1.366704 5.63944,-11.720609 6.74855,-16.069577 5.71869,9.456881 8.27526,5.033665 11.627,3.741771 -15.1079,35.375014 4.95796,18.082396 6.61414,13.03219"
       />
    <path class="letters" id="s"       
       d="m 149.9382,24.919611 c -3.46968,-7.894988 -12.23658,-7.289135 -15.63899,-2.976567 -6.20485,11.500717 15.567,6.856318 16.27684,16.272295 0.56462,7.827832 -16.85912,6.824921 -17.51244,-1.905602"
       />
    <path class="letters" id="i"       
       d="m 164.21839,43.292683 c -9.99458,3.875955 -4.61471,-18.761695 -2.64286,-22.797959"
        />
    <path class="letters" id="dot"       
       d="m 163.70922,13.37177 0.68139,-1.159246"
       />
  </g>
</svg>
