
<svg width="300" height="300" xmlns="http://www.w3.org/2000/svg">

<style>
  circle[r="9"] {
    fill: none;
    animation: ChangeColor 15s infinite;
  }

  circle[r="9"]:last-of-type {
    animation: ChangeToStone 15s infinite;
  }

  circle[id^="toChange_"] {
    animation: ChangeToWhite 15s infinite;
  }

  @keyframes ChangeColor {
    0% {
      fill: none;
    }
    20% {
      fill: #44d9b3;
    }
    54% {
      fill: #44d9b3;
    }
    55% {
      fill: none;
    }
    100% {
      fill: none;
    }
  }

  @keyframes ChangeToStone {
    0% {
      r: 9; 
      stroke: none;
      fill: none;
    }
    20% {
      fill: #44d9b3;
    }
    54% {
      r: 9; 
      stroke: none;
      fill: #44d9b3;
    }
    55% {
      r: 11; 
      stroke: black;
      fill: whitesmoke;
    }
    100% {
      r: 11; 
      stroke: black;
      fill: whitesmoke;
    }
  }

  @keyframes ChangeToWhite {
    0% {
      stroke: whitesmoke;
      fill: black;
    }
    65% {
      stroke: whitesmoke;
      fill: black;   
    }
    66% { 
      stroke: black;
      fill: whitesmoke;
    }
    100% {
      stroke: black;
      fill: whitesmoke;
    }
  }
</style>



  <rect x="0" y="0" width="300" height="300" stroke="none" fill="whitesmoke" />
  <rect x="30" y="30" width="240" height="240" stroke="none" fill="#2d856f" />
  <line x1="30" y1="30" x2="270" y2="30" stroke="black" stroke-width="1.5" />
  <line x1="30" y1="60" x2="270" y2="60" stroke="black" stroke-width="1.5" />
  <line x1="30" y1="90" x2="270" y2="90" stroke="black" stroke-width="1.5" />
  <line x1="30" y1="120" x2="270" y2="120" stroke="black" stroke-width="1.5" />
  <line x1="30" y1="150" x2="270" y2="150" stroke="black" stroke-width="1.5" />
  <line x1="30" y1="180" x2="270" y2="180" stroke="black" stroke-width="1.5" />
  <line x1="30" y1="210" x2="270" y2="210" stroke="black" stroke-width="1.5" />
  <line x1="30" y1="240" x2="270" y2="240" stroke="black" stroke-width="1.5" />
  <line x1="30" y1="270" x2="270" y2="270" stroke="black" stroke-width="1.5" />

<line x1="30" y1="30" x2="30" y2="270" stroke="black" stroke-width="1.5" />
<line x1="60" y1="30" x2="60" y2="270" stroke="black" stroke-width="1.5" />
<line x1="90" y1="30" x2="90" y2="270" stroke="black" stroke-width="1.5" />
<line x1="120" y1="30" x2="120" y2="270" stroke="black" stroke-width="1.5" />
<line x1="150" y1="30" x2="150" y2="270" stroke="black" stroke-width="1.5" />
<line x1="180" y1="30" x2="180" y2="270" stroke="black" stroke-width="1.5" />
<line x1="210" y1="30" x2="210" y2="270" stroke="black" stroke-width="1.5" />
<line x1="240" y1="30" x2="240" y2="270" stroke="black" stroke-width="1.5" />
<line x1="270" y1="30" x2="270" y2="270" stroke="black" stroke-width="1.5" />

  <text x="40" y="23" font-size="20">a</text>
  <text x="70" y="23" font-size="20">b</text>
  <text x="100" y="23" font-size="20">c</text>
  <text x="130" y="23" font-size="20">d</text>
  <text x="160" y="23" font-size="20">e</text>
  <text x="190" y="23" font-size="20">f</text>
  <text x="220" y="23" font-size="20">g</text>
  <text x="250" y="23" font-size="20">h</text>

  <text x="40" y="290" font-size="20">a</text>
  <text x="70" y="290" font-size="20">b</text>
  <text x="100" y="290" font-size="20">c</text>
  <text x="130" y="290" font-size="20">d</text>
  <text x="160" y="290" font-size="20">e</text>
  <text x="190" y="290" font-size="20">f</text>
  <text x="220" y="290" font-size="20">g</text>
  <text x="250" y="290" font-size="20">h</text>

  <text x="10" y="53" font-size="20">1</text>
  <text x="10" y="83" font-size="20">2</text>
  <text x="10" y="113" font-size="20">3</text>
  <text x="10" y="143" font-size="20">4</text>
  <text x="10" y="173" font-size="20">5</text>
  <text x="10" y="203" font-size="20">6</text>
  <text x="10" y="233" font-size="20">7</text>
  <text x="10" y="263" font-size="20">8</text>

  <text x="278" y="53" font-size="20">1</text>
  <text x="278" y="83" font-size="20">2</text>
  <text x="278" y="113" font-size="20">3</text>
  <text x="278" y="143" font-size="20">4</text>
  <text x="278" y="173" font-size="20">5</text>
  <text x="278" y="203" font-size="20">6</text>
  <text x="278" y="233" font-size="20">7</text>
  <text x="278" y="263" font-size="20">8</text>
  
  <circle cx="165" cy="135" r="11" stroke="whitesmoke" fill="black" id="toChange_1"/>
  <circle cx="165" cy="105" r="11" stroke="whitesmoke" fill="black" />
  <circle cx="135" cy="135" r="11" stroke="whitesmoke" fill="black" />
  <circle cx="105" cy="135" r="11" stroke="whitesmoke" fill="black" />
  <circle cx="105" cy="165" r="11" stroke="whitesmoke" fill="black" />
  <circle cx="195" cy="165" r="11" stroke="whitesmoke" fill="black" id="toChange_2"/>



  <circle cx="135" cy="105" r="11" stroke="black" fill="whitesmoke" />
  <circle cx="135" cy="165" r="11" stroke="black" fill="whitesmoke" />
  <circle cx="135" cy="195" r="11" stroke="black" fill="whitesmoke" />
  <circle cx="165" cy="165" r="11" stroke="black" fill="whitesmoke" />
  <circle cx="195" cy="195" r="11" stroke="black" fill="whitesmoke" />

  <circle cx="165" cy="75" r="9" stroke="none"  />
  <circle cx="75" cy="105" r="9" stroke="none"  />
  <circle cx="105" cy="105" r="9" stroke="none"  />

  <circle cx="195" cy="105" r="9" stroke="none"  />
  <circle cx="75" cy="135" r="9" stroke="none"  />
  <circle cx="195" cy="135" r="9" stroke="none"  />

  <circle cx="75" cy="165" r="9" stroke="none"  />
  <circle cx="225" cy="165" r="9" stroke="none"  />
  <circle cx="225" cy="195" r="9" stroke="none"  />


</svg>